{
    "profesores":[{
        "id":"pepe.juan",
        "nombre":"nombre1",
        "apellidos":"apellidos1",
        "disponibilidad":
            [0,1,1,1,0,0,0,1],
            [0,1,1,1,0,0,0,1],
            [0,1,1,1,0,0,0,1],
            [0,1,1,1,0,0,0,1],
            [0,1,1,1,0,0,0,1],
            [0,1,1,1,0,0,0,1]
            ...

    }],
    "clases":[
        [
            "profesor":"pepe.juan", //identificador profesor
            "apellidos_profesor":"Garcia",
            "total_alumnos":50,
            {
                "nombre_grupo":"IIAA3201",
                "nombre_asignatura":"Inglés III",
                "total_alumnos_grupo":40
            },
            {
                "nombre_grupo":"CMAMO1201",
                "nombre_asignatura":"Inglés I",
                "total_alumnos_grupo":10
            }
        ],
        [
            "nombre_profesor":"Pepe Juan",
            "apellidos_profesor":"Garcia",
            "total_alumnos":50
            {
                "nombre_grupo":"IIAA3201",
                "nombre_asignatura":"Inglés III",
                "total_alumnos_grupo":40
            },
            {
                "nombre_grupo":"CMAMO1201",
                "nombre_asignatura":"Inglés I",
                "total_alumnos_grupo":10
            }
        ]
    ],
     "aulas":[
            "aula1":{
                "nombre":aula,
                "planta":string,
                "capacidad":int,
                "descripcion":string,
                "caracteriticas":[
                    "",
                    ""
                    ... //Infinito
                ]
            },
            "aula2":{
                "nombre":aula,
                "planta":string,
                "capacidad":int,
                "descripcion":string,
                "caracteriticas":[
                    "",
                    ""
                    ... //Infinito
                ]
            }
        ]
}
